{
    "data": [
        {
            "id": 1,
            "user_name": "bala",
            "img": "assets\/detail_food_1.png",
            "category": "food",
            "icons": null,
            "item_name": "egg and cheese muffin",
            "description": "Perpaduan roti burger dengan dengan tiga lapis daging",
            "price": 22000,
            "total": 0,
            "qty": 0,
            "note": "Banyakin kejunya",
            "popular": 0,
            "table": 10,
            "tax": 0,
            "service": 0,
            "created_at": "2021-04-20T04:05:08.000000Z",
            "updated_at": "2021-04-20T04:05:08.000000Z"
        },
        {
            "id": 2,
            "user_name": "bala",
            "img": "assets\/detail_food_2.png",
            "category": "food",
            "icons": null,
            "item_name": "tripple burger width cheese",
            "description": "Perpaduan roti burger dengan dengan tiga lapis daging",
            "price": 20000,
            "total": 0,
            "qty": 0,
            "note": "Banyakin kejunya",
            "popular": 0,
            "table": 10,
            "tax": 0,
            "service": 0,
            "created_at": "2021-04-20T04:07:03.000000Z",
            "updated_at": "2021-04-20T04:07:03.000000Z"
        },
        {
            "id": 3,
            "user_name": "bala",
            "img": "assets\/detail_food_3.png",
            "category": "food",
            "icons": null,
            "item_name": "ayam goreng khas banjaranyar",
            "description": "Saus rica-rica pedas diatas nasi hangat dan daging ayam pilihan",
            "price": 55000,
            "total": 0,
            "qty": 0,
            "note": null,
            "popular": 0,
            "table": 10,
            "tax": 0,
            "service": 0,
            "created_at": "2021-04-20T04:08:01.000000Z",
            "updated_at": "2021-04-20T04:08:01.000000Z"
        },
        {
            "id": 4,
            "user_name": "bala",
            "img": "assets\/detail_food_4.png",
            "category": "food",
            "icons": null,
            "item_name": "ayam goreng khas brebes",
            "description": "Cita rasa local dengan nasi berbumbu, ayam goreng dan telor",
            "price": 55000,
            "total": 0,
            "qty": 0,
            "note": null,
            "popular": 0,
            "table": 10,
            "tax": 0,
            "service": 0,
            "created_at": "2021-04-20T04:08:51.000000Z",
            "updated_at": "2021-04-20T04:08:51.000000Z"
        },
        {
            "id": 5,
            "user_name": "bala",
            "img": "assets\/popular_1.png",
            "category": "food",
            "icons": null,
            "item_name": "nugget ayam",
            "description": "nugget special",
            "price": 55000,
            "total": 0,
            "qty": 0,
            "note": "pedes manis",
            "popular": 1,
            "table": 10,
            "tax": 0,
            "service": 0,
            "created_at": "2021-04-20T04:09:59.000000Z",
            "updated_at": "2021-04-20T04:09:59.000000Z"
        },
        {
            "id": 6,
            "user_name": "bala",
            "img": "assets\/popular_1.png",
            "category": "beverage",
            "icons": null,
            "item_name": "iced caffe late",
            "description": "most popular",
            "price": 55000,
            "total": 0,
            "qty": 0,
            "note": "dingin",
            "popular": 1,
            "table": 10,
            "tax": 0,
            "service": 0,
            "created_at": "2021-04-20T04:11:32.000000Z",
            "updated_at": "2021-04-20T04:11:32.000000Z"
        },
        {
            "id": 7,
            "user_name": "bala",
            "img": "assets\/popular_3.png",
            "category": "food",
            "icons": null,
            "item_name": "ayam goreng khas harris",
            "description": "most popular",
            "price": 55000,
            "total": 0,
            "qty": 0,
            "note": "dingin",
            "popular": 1,
            "table": 10,
            "tax": 0,
            "service": 0,
            "created_at": "2021-04-20T04:12:19.000000Z",
            "updated_at": "2021-04-20T04:12:19.000000Z"
        },
        {
            "id": 8,
            "user_name": "bala",
            "img": "assets\/popular_4.png",
            "category": "food",
            "icons": null,
            "item_name": "triple burger cheese deluxe",
            "description": "most popular",
            "price": 55000,
            "total": 0,
            "qty": 0,
            "note": null,
            "popular": 1,
            "table": 10,
            "tax": 0,
            "service": 0,
            "created_at": "2021-04-20T04:12:49.000000Z",
            "updated_at": "2021-04-20T04:12:49.000000Z"
        },
        {
            "id": 9,
            "user_name": "bala",
            "img": "assets\/popular_5.png",
            "category": "food",
            "icons": null,
            "item_name": "nasi uduk komplit",
            "description": "most popular",
            "price": 15000,
            "total": 0,
            "qty": 0,
            "note": null,
            "popular": 1,
            "table": 10,
            "tax": 0,
            "service": 0,
            "created_at": "2021-04-20T04:13:27.000000Z",
            "updated_at": "2021-04-20T04:13:27.000000Z"
        },
        {
            "id": 10,
            "user_name": "bala",
            "img": "assets\/popular_6.png",
            "category": "beverage",
            "icons": null,
            "item_name": "coca-cola",
            "description": "most popular",
            "price": 25000,
            "total": 0,
            "qty": 0,
            "note": null,
            "popular": 1,
            "table": 10,
            "tax": 0,
            "service": 0,
            "created_at": "2021-04-20T04:14:05.000000Z",
            "updated_at": "2021-04-20T04:14:05.000000Z"
        },
        {
            "id": 11,
            "user_name": "bala",
            "img": "assets\/popular_6.png",
            "category": "dessert",
            "icons": null,
            "item_name": "avocado mousse",
            "description": "most popular",
            "price": 60000,
            "total": 0,
            "qty": 0,
            "note": null,
            "popular": 1,
            "table": 10,
            "tax": 0,
            "service": 0,
            "created_at": "2021-04-20T04:21:41.000000Z",
            "updated_at": "2021-04-20T04:21:41.000000Z"
        },
        {
            "id": 12,
            "user_name": "bala",
            "img": "assets\/popular_5.png",
            "category": "dessert",
            "icons": null,
            "item_name": "birthday cake",
            "description": "cake ultah",
            "price": 60000,
            "total": 0,
            "qty": 0,
            "note": null,
            "popular": 0,
            "table": 10,
            "tax": 0,
            "service": 0,
            "created_at": "2021-04-20T04:22:38.000000Z",
            "updated_at": "2021-04-20T04:22:38.000000Z"
        }
    ]
}